{
    "EveCharacter": [
        {
            "character_id": 1001,
            "character_name": "Bruce Wayne",
            "corporation_id": 2001,
            "corporation_name": "Wayne Technologies",
            "corporation_ticker": "WYT",
            "alliance_id": 3001,
            "alliance_name": "Wayne Enterprises",
            "alliance_ticker": "WYN"
        },
        {
            "character_id": 1002,
            "character_name": "Clark Kent",
            "corporation_id": 2001,
            "corporation_name": "Wayne Technologies",
            "corporation_ticker": "WYT",
            "alliance_id": 3001,
            "alliance_name": "Wayne Enterprises",
            "alliance_ticker": "WYN"
        },
        {
            "character_id": 1003,
            "character_name": "Peter Parker",
            "corporation_id": 2002,
            "corporation_name": "Wayne Food",
            "corporation_ticker": "WYF",
            "alliance_id": 3001,
            "alliance_name": "Wayne Enterprises",
            "alliance_ticker": "WYN"
        },
        {
            "character_id": 1101,
            "character_name": "Lex Luther",
            "corporation_id": 2101,
            "corporation_name": "Lexcorp",
            "corporation_ticker": "LXC",
            "alliance_id": 3101,
            "alliance_name": "Lex Global Inc.",
            "alliance_ticker": "LXG"
        },
        {
            "character_id": 1102,
            "character_name": "Harley Quinn",
            "corporation_id": 2102,
            "corporation_name": "Harley Quinn inc.",
            "corporation_ticker": "HQ"
        },
        {
            "character_id": 1103,
            "character_name": "Floyd Lawton",
            "corporation_id": 2103,
            "corporation_name": "Suicide Squad",
            "corporation_ticker": "SS"
        },
        {
            "character_id": 1104,
            "character_name": "Ben Turner",
            "corporation_id": 2103,
            "corporation_name": "Suicide Squad",
            "corporation_ticker": "SS"
        },
        {
            "character_id": 1105,
            "character_name": "Leah Wasserman",
            "corporation_id": 2103,
            "corporation_name": "Suicide Squad",
            "corporation_ticker": "SS"
        },
        {
            "character_id": 1106,
            "character_name": "Eve Eden",
            "corporation_id": 2103,
            "corporation_name": "Suicide Squad",
            "corporation_ticker": "SS"
        },
        {
            "character_id": 1107,
            "character_name": "Christopher Weiss",
            "corporation_id": 2103,
            "corporation_name": "Suicide Squad",
            "corporation_ticker": "SS"
        },
        {
            "character_id": 1110,
            "character_name": "Phil Coulson",
            "corporation_id": 2110,
            "corporation_name": "Shield",
            "corporation_ticker": "SH"
        },
        {
            "character_id": 1111,
            "character_name": "Daisy Johnson",
            "corporation_id": 2110,
            "corporation_name": "Shield",
            "corporation_ticker": "SH"
        },
        {
            "character_id": 1121,
            "character_name": "Grant Ward",
            "corporation_id": 2120,
            "corporation_name": "Operations",
            "corporation_ticker": "OP",
            "alliance_id": 3121,
            "alliance_name": "Hydra",
            "alliance_ticker": "HYD"
        },
        {
            "character_id": 1122,
            "character_name": "Leo Fitz",
            "corporation_id": 2121,
            "corporation_name": "Tech",
            "corporation_ticker": "TC",
            "alliance_id": 3121,
            "alliance_name": "Hydra",
            "alliance_ticker": "HYD"
        }
    ],
    "EveEntity": [
        {
            "id": 3011,
            "category": "alliance",
            "name": "Big Bad Alliance"
        },
        {
            "id": 2011,
            "category": "corporation",
            "name": "Bad Company"
        },
        {
            "id": 1011,
            "category": "character",
            "name": "Bad Dude"
        },
        {
            "id": 2021,
            "category": "corporation",
            "name": "Dummy Corp 1"
        },
        {
            "id": 1901,
            "category": "character",
            "name": "Agent"
        },
        {
            "id": 2901,
            "category": "corporation",
            "name": "NPC corporation"
        }

    ]
}
