{
    "Assets": {
        "get_characters_character_id_assets": {
            "1001": [
                {
                    "is_blueprint_copy": true,
                    "is_singleton": true,
                    "item_id": 1100000000001,
                    "location_flag": "Hangar",
                    "location_id": 60003760,
                    "location_type": "station",
                    "quantity": 1,
                    "type_id": 20185
                },
                {
                    "is_blueprint_copy": false,
                    "is_singleton": true,
                    "item_id": 1100000000002,
                    "location_flag": "???",
                    "location_id": 1100000000001,
                    "location_type": "item",
                    "quantity": 1,
                    "type_id": 19540
                },
                {
                    "is_blueprint_copy": false,
                    "is_singleton": true,
                    "item_id": 1100000000003,
                    "location_flag": "???",
                    "location_id": 1100000000001,
                    "location_type": "item",
                    "quantity": 1,
                    "type_id": 23
                },
                {
                    "is_blueprint_copy": false,
                    "is_singleton": true,
                    "item_id": 1100000000004,
                    "location_flag": "???",
                    "location_id": 1100000000003,
                    "location_type": "item",
                    "quantity": 1,
                    "type_id": 19553
                },
                {
                    "is_blueprint_copy": true,
                    "is_singleton": true,
                    "item_id": 1100000000005,
                    "location_flag": "Hangar",
                    "location_id": 1000000000001,
                    "location_type": "other",
                    "quantity": 1,
                    "type_id": 20185
                },
                {
                    "is_blueprint_copy": false,
                    "is_singleton": true,
                    "item_id": 1100000000006,
                    "location_flag": "???",
                    "location_id": 1100000000005,
                    "location_type": "item",
                    "quantity": 1,
                    "type_id": 19540
                },
                {
                    "is_blueprint_copy": false,
                    "is_singleton": true,
                    "item_id": 1100000000007,
                    "location_flag": "???",
                    "location_id": 30000142,
                    "location_type": "solar_system",
                    "quantity": 1,
                    "type_id": 19540
                },
                {
                    "is_blueprint_copy": false,
                    "is_singleton": true,
                    "item_id": 1100000000008,
                    "location_flag": "???",
                    "location_id": 1000000000001,
                    "location_type": "item",
                    "quantity": 1,
                    "type_id": 19540
                }
            ]
        },
        "post_characters_character_id_assets_names": {
            "1001": [
                {
                    "item_id": 1100000000001,
                    "name": "Parent Item 1"
                },
                {
                    "item_id": 1100000000002,
                    "name": "Leaf Item 2"
                },
                {
                    "item_id": 1100000000003,
                    "name": "Leaf Item 3"
                },
                {
                    "item_id": 1100000000004,
                    "name": "Leaf Item 4"
                },
                {
                    "item_id": 1100000000005,
                    "name": "Parent Item 2"
                },
                {
                    "item_id": 1100000000006,
                    "name": "Leaf Item 6"
                },
                {
                    "item_id": 1100000000007,
                    "name": "None"
                },
                {
                    "item_id": 1100000000008,
                    "name": "None"
                }
            ]
        }
    },
    "Character": {
        "get_characters_character_id": {
            "1001": {
                "ancestry_id": 11,
                "birthday": "2015-03-24T11:37:00Z",
                "bloodline_id": 1,
                "corporation_id": 2001,
                "description": "Scio me nihil scire",
                "gender": "male",
                "name": "Bruce Wayne",
                "race_id": 1,
                "title": "All round pretty awesome guy"
            },
            "1002": {
                "ancestry_id": 11,
                "birthday": "2015-03-24T11:37:00Z",
                "bloodline_id": 1,
                "corporation_id": 2001,
                "description": "u'<font size=\"12\" color=\"#bfffffff\">Die Deus lo Vult will dich!<br><br>Wir sind eine kleine, starke Gemeinschaft bestehend aus Industriellen, Entdeckern, K\\xe4mpfern und J\\xe4gern. <br><br>Aktuell bauen wir alles neu auf, daher \\xe4ndern sich manche Dinge, im Kern sind wir aber eins: Ein Team. Jeder hat die gleichen Chancen und M\\xf6glichkeiten, niemand muss sich binden. F\\xfcr uns steht Spa\\xdf im Vordergrund.<br><br>Was wir nicht wollen:<br>Scammer, Piraten und sonstiges kriminelles Gesindel<br><br>Was erwartet wir von Dir?<br>\\xbb Bereitschaft zum VoiceCom (Mumble)<br>\\xbb Freundliche Umgangsformen<br>\\xbb Zuverl\\xe4ssigkeit, Eigeninitiative, Hilfsbereitschaft, Teamf\\xe4higkeit<br>Forenaktivit\\xe4t, zumindest lesenderweise!!<br>\\xbb Spa\\xdf am Spiel und Zeit daf\\xfcr. RL hat aber immer Vorrang!<br><br>Offentlicher Chat:  </font><font size=\"12\" color=\"#ff6868e1\"><a href=\"joinChannel:player_-23694601//None//None\">Deus-lo-Vult</a></font><font size=\"12\" color=\"#bfffffff\"> </font>'",
                "gender": "male",
                "name": "Clark Kent",
                "race_id": 1,
                "title": "Bio with lots of non-ASCII chars and the u-bug"
            },
            "1003": {
                "ancestry_id": 11,
                "birthday": "2015-03-24T11:37:00Z",
                "bloodline_id": 1,
                "corporation_id": 2002,
                "description": "u'<font size=\"12\" color=\"#bfffffff\"></font><font size=\"18\" color=\"#ff000000\">\\u2588\\u2588\\u2588\\u2588\\u2588\\u2588\\u2588\\u2588\\u2588\\u2588\\u2588\\u2588<br></font><font size=\"18\" color=\"#ffff0000\">\\u2588\\u2588\\u2588\\u2588\\u2588\\u2588\\u2588\\u2588\\u2588\\u2588\\u2588\\u2588<br></font><font size=\"18\" color=\"#ffffff00\">\\u2588\\u2588\\u2588\\u2588\\u2588\\u2588\\u2588\\u2588\\u2588\\u2588\\u2588\\u2588<br><br></font><font size=\"18\" color=\"#bfffffff\">\\u2261\\u221a\\u2261~free$y^<br></font><font size=\"8\" color=\"#ffb2b2b2\">----------<br></font><font size=\"24\" color=\"#bfffffff\">  </font><font size=\"18\" color=\"#bfffffff\">trouble~status....</font><font size=\"30\" color=\"#bfffffff\"> </font><font size=\"24\" color=\"#bfffffff\">\\u256d\\u2229\\u256e(\\u25e3_\\u25e2)\\u256d\\u2229\\u256e<br></font><font size=\"18\" color=\"#ff4c4c4c\">\\u2554\\u2550\\u2550\\u2550\\u2550\\u2550\\u2550\\u2550\\u2550\\u2550\\u2550\\u2550\\u2550\\u2550\\u2550\\u2550\\u2550\\u2550\\u2550\\u2550\\u2550\\u2550\\u2550\\u2550\\u2550\\u2550\\u2550\\u2550\\u2557<br>\\u2551\\u2588\\u2588\\u2588\\u2588\\u2588</font><font size=\"18\" color=\"#ffff0000\">\\u2591\\u2591\\u2591\\u2591\\u2591\\u2591\\u2591\\u2591\\u2591\\u2591\\u2591\\u2591\\u2591\\u2591\\u2591\\u2591\\u2591\\u2591\\u2591\\u2591\\u2591\\u2591</font><font size=\"18\" color=\"#ff4c4c4c\">\\u2551</font><font size=\"18\" color=\"#bfffffff\"> (17%)<br></font><font size=\"18\" color=\"#ff4c4c4c\">\\u255a\\u2550\\u2550\\u2550\\u2550\\u2550\\u2550\\u2550\\u2550\\u2550\\u2550\\u2550\\u2550\\u2550\\u2550\\u2550\\u2550\\u2550\\u2550\\u2550\\u2550\\u2550\\u2550\\u2550\\u2550\\u2550\\u2550\\u2550\\u255d<br><br><br></font><font size=\"18\" color=\"#ffffffff\">NPC Type / Damage to fitt^</font><font size=\"10\" color=\"#ffffffff\">last</font><font size=\"18\" color=\"#ffffffff\">-</font><font size=\"10\" color=\"#ffffffff\">modified July 2013<br><br></font><font size=\"12\" color=\"#ff4c4c4c\">Guristas ----- </font><font size=\"12\" color=\"#ffb2b2b2\">79% Kinetic</font><font size=\"12\" color=\"#ff4c4c4c\"> </font><font size=\"12\" color=\"#ff7f0000\">18% Thermal</font><font size=\"12\" color=\"#ff4c4c4c\"> </font><font size=\"12\" color=\"#ff007fff\">2% EM</font><font size=\"12\" color=\"#ff4c4c4c\"> </font><font size=\"12\" color=\"#ffffff00\">1% Explo<br></font><font size=\"12\" color=\"#ff4c4c4c\">Serpentis ---- </font><font size=\"12\" color=\"#ff7f0000\">55% Thermal</font><font size=\"12\" color=\"#ff4c4c4c\"> </font><font size=\"12\" color=\"#ffb2b2b2\">45% Kinetic<br></font><font size=\"12\" color=\"#ff4c4c4c\">Blood Raider\\'s- </font><font size=\"12\" color=\"#ff007fff\">50% EM</font><font size=\"12\" color=\"#ff4c4c4c\"> </font><font size=\"12\" color=\"#ff7f0000\">48% Thermal</font><font size=\"12\" color=\"#ff4c4c4c\"> </font><font size=\"12\" color=\"#ffb2b2b2\">2% Kinetic<br></font><font size=\"12\" color=\"#ff4c4c4c\">Sanshas ----- </font><font size=\"12\" color=\"#ff007fff\">53% EM</font><font size=\"12\" color=\"#ff4c4c4c\"> </font><font size=\"12\" color=\"#ff7f0000\">47% Thermal<br></font><font size=\"12\" color=\"#ff4c4c4c\">Angel\\'s ------ </font><font size=\"12\" color=\"#ffffff00\">62% Explo</font><font size=\"12\" color=\"#ff4c4c4c\"> </font><font size=\"12\" color=\"#ffb2b2b2\">22%Kinetic</font><font size=\"12\" color=\"#ff4c4c4c\"> </font><font size=\"12\" color=\"#ff7f0000\">9% Thermal</font><font size=\"12\" color=\"#ff4c4c4c\"> </font><font size=\"12\" color=\"#ff007fff\">7% EM<br></font><font size=\"12\" color=\"#ff4c4c4c\">Rogue Drones- </font><font size=\"12\" color=\"#ffffff00\">55% Explo</font><font size=\"12\" color=\"#ff4c4c4c\"> </font><font size=\"12\" color=\"#ffb2b2b2\">19% Kinetic</font><font size=\"12\" color=\"#ff7f0000\"> 17% Thermal</font><font size=\"12\" color=\"#ff4c4c4c\"> </font><font size=\"12\" color=\"#ff007fff\">7% EM<br></font><font size=\"12\" color=\"#ff4c4c4c\">Mordus Legion- </font><font size=\"12\" color=\"#ffb2b2b2\">70%% Kinetic</font><font size=\"12\" color=\"#ff7f0000\"> 30% Thermal<br><br></font><font size=\"12\" color=\"#ff4c4c4c\">EoM --------- </font><font size=\"12\" color=\"#ffb2b2b2\">74% Kinetic</font><font size=\"12\" color=\"#ff4c4c4c\"> </font><font size=\"12\" color=\"#ff7f0000\">26% Thermal<br></font><font size=\"12\" color=\"#ff4c4c4c\">Mercenary ---- </font><font size=\"12\" color=\"#ffb2b2b2\">Kinetic</font><font size=\"12\" color=\"#ff4c4c4c\"> </font><font size=\"12\" color=\"#ff7f0000\">Thermal</font><font size=\"12\" color=\"#ffffff00\"> Explosive</font><font size=\"12\" color=\"#ff4c4c4c\"> </font><font size=\"12\" color=\"#ff007fff\">EM <br></font><font size=\"12\" color=\"#ff4c4c4c\">Khanid ------- </font><font size=\"12\" color=\"#ff7f0000\">Thermal</font><font size=\"12\" color=\"#ff4c4c4c\"> </font><font size=\"12\" color=\"#ff007fff\">EM</font><font size=\"12\" color=\"#ff0000ff\"> <br></font><font size=\"12\" color=\"#ff4c4c4c\">Concord ------ </font><font size=\"12\" color=\"#ffb2b2b2\">37% Kinetic</font><font size=\"12\" color=\"#ff4c4c4c\"> </font><font size=\"12\" color=\"#ff7f0000\">32% Thermal</font><font size=\"12\" color=\"#ff4c4c4c\"> </font><font size=\"12\" color=\"#ffffff00\">30% Explo</font><font size=\"12\" color=\"#ff4c4c4c\"> </font><font size=\"12\" color=\"#ff007fff\">29% EM<br><br><br></font><font size=\"18\" color=\"#ffffffff\">System/Standings &amp; CONCORD Reaction Time!!<br><br></font><font size=\"12\" color=\"#ff007fff\">1.0:</font><font size=\"12\" color=\"#ff4c4c4c\"> / -2.0 --&gt; 5-6 Seconds<br></font><font size=\"12\" color=\"#ff00ffff\">0.9:</font><font size=\"12\" color=\"#ff4c4c4c\"> / -2.5 --&gt; 6-7 Seconds<br></font><font size=\"12\" color=\"#ff00ff00\">0.8:</font><font size=\"12\" color=\"#ff4c4c4c\"> / -3.0 --&gt; 7-8 Seconds<br></font><font size=\"12\" color=\"#ff007f00\">0.7:</font><font size=\"12\" color=\"#ff4c4c4c\"> / -3.5 --&gt; 7-9 Seconds<br></font><font size=\"12\" color=\"#ff7f7f00\">0.6: </font><font size=\"12\" color=\"#ff4c4c4c\">/ -4.0 --&gt; 10-11 seconds<br></font><font size=\"12\" color=\"#ffffff00\">0.5:</font><font size=\"12\" color=\"#ff4c4c4c\"> / -4.5 --&gt; 12-14 Seconds</font>'",
                "gender": "male",
                "name": "Peter Parker",
                "race_id": 1,
                "title": "Bio with is causing a syntax error (#77)"
            },
            "1101": {
                "birthday": "2016-04-05T17:09:25Z",
                "bloodline_id": 1,
                "corporation_id": 2101,
                "description": "u'<font size=\"13\" color=\"#ff999999\"><\/font><font size=\"12\" color=\"#ffd98d00\"><a href=\"killReport:64347713:cd667c154b00e441588d9514aace5fa62c0c2334\">The Definition Of Overkill<\/a><\/font><font size=\"12\" color=\"#bfffffff\"> <br><br><\/font><font size=\"12\" color=\"#ff007fff\">Your<\/font><font size=\"12\" color=\"#bfffffff\"> <\/font><font size=\"12\" color=\"#ff00ff00\">tears<\/font><font size=\"12\" color=\"#bfffffff\"> <\/font><font size=\"12\" color=\"#ffffff00\">fuel<\/font><font size=\"12\" color=\"#bfffffff\"> <\/font><font size=\"12\" color=\"#ffff00ff\">me.<br><\/font><font size=\"12\" color=\"#ffff0000\">\\u256d\\u2229\\u256e(\\u25e3_\\u25e2)\\u256d\\u2229\\u256e <br><br><\/font><font size=\"12\" color=\"#ffffff00\">Hagel Baltrom glorreicher Anf\\xfchrer des Kongressabgeordneten<br><br><\/font><font size=\"12\" color=\"#ff7f007f\">.\\u3000 \\u2022 \\u25cb \\xb0 \\u2605\\u3000  .\\u3000 \\u3000 \\u3000.\\u2605 \\u3000\\xb0  .\\u3000  \\u2022  \\u25cb .\\u3000\\u3000\\u3000\\u3000*\\u3000.  \\u3000 \\u263e \\xb0  \\u3000\\xb8. * \\u25cf \\xb8 \\u3000\\u3000\\u3000\\u3000\\xb0 \\u263e \\xb0\\u2606 \\u3000. * \\xb8.\\u3000\\u3000\\u3000\\u2605\\u3000\\u2605 \\xb0 .  .\\u3000\\u3000\\u3000\\u3000.\\u3000 \\u263e \\xb0\\u2606  \\u3000.  *   \\u25cf  \\xb8 .\\u3000  \\u3000\\u3000\\u2605\\u3000\\xb0 :   .\\u3000  . \\u2022 \\u25cb \\xb0 \\u2605 \\u3000 .\\u3000 *\\u3000.\\u3000\\u3000\\u3000\\u3000\\u3000\\u3000. \\u3000 \\xb0 \\u3000. \\u25cf .\\u3000\\u3000\\u3000\\u3000\\xb0 \\u263e \\xb0\\u2606  \\u3000 \\u3000\\u3000\\u2605 \\u3000 \\u3000 \\u2605 \\xb0 \\u263e  \\u2606 \\xb8. \\xb8 \\u3000\\u2605 \\u3000 : . \\u3000   . \\u2022 \\u25cb   \\xb0 \\u2605\\u3000 . \\u3000 *\\u3000.\\u3000.\\u3000\\u3000\\xb8 .\\u3000\\u3000 \\xb0 \\u3000\\xb8. * \\u25cf \\xb8 .\\u3000.\\u3000\\xb0 \\u263e\\u3000  \\u2605 \\xb0 . .\\u3000  \\u3000\\u3000\\u3000.\\u3000\\u263e \\xb0\\u2606  \\u3000. * \\u25cf \\xb8 .\\u3000 \\u3000\\u3000\\u2605\\u3000\\xb0 :  .\\u3000 . \\u2022 \\u25cb \\xb0  \\u2605\\u3000  .\\u3000 *\\u3000.\\u3000\\u3000\\u3000\\u3000\\u3000\\u3000. \\u3000 \\xb0 \\u3000. \\u25cf .\\u3000\\u3000 \\u3000 \\xb0 \\u263e \\xb0\\u2606 \\u3000\\xb8.\\u25cf .\\u3000\\u3000 \\u2605\\u3000\\u3000\\u2605 \\xb0 \\u263e  \\u2606 \\xb8. \\xb8 \\u3000\\u2605\\u3000 :  .\\u3000 . \\u2022 \\u25cb \\xb0  \\u2605\\u3000 . \\u3000 *\\u3000.\\u3000.\\u3000\\u3000\\xb8 .\\u3000\\u3000 \\xb0 \\u3000\\xb8.  * \\u25cf   \\xb8 .\\u3000\\u3000\\u3000\\u3000\\xb0  \\u263e  \\xb0 \\u2605 \\u3000\\u3000\\u2605 \\xb0 \\u263e \\u2606 \\xb8 , \\xb8 \\u3000\\u2605\\u3000 :.\\u3000\\u3000\\xb8. \\u25cf \\xb8 .\\u3000\\u3000\\u2605\\u3000\\xb0 :  .  \\u3000 . \\u2022 \\xb0 \\u3000  .\\u3000 * \\u3000:.\\u3000 .\\u3000\\xb8  . \\u25cf \\xb8 \\u3000\\u3000\\u3000\\u2605\\u3000\\u3000\\u2605  \\u263e \\xb0\\u2605 . \\u3000\\u3000\\u2605 \\xb0 . .\\u3000\\u3000\\u3000\\u3000.  \\u3000\\u263e \\xb0\\u2606  \\u3000. * \\u25cf \\xb8 .\\u3000\\u3000\\u3000 \\u2605\\u3000\\xb0  :  .\\u3000 . \\u2022 \\u25cb   \\xb0 \\u2605  \\u3000 .\\u3000 *\\u3000.\\u3000\\u3000 \\u3000\\u3000. \\u3000 \\xb0\\u2605 \\u3000\\u3000\\u2605 \\xb0 \\u263e \\u2606 \\xb8. \\xb8 \\u3000\\u2605\\u3000 :.\\u3000 . \\u2022 \\u25cb \\xb0 \\u2605  \\u3000 . \\u3000 * \\u3000. \\u3000.\\u3000\\u3000  \\xb8 .\\u3000\\u3000 \\xb0 \\u3000\\xb8. * \\u25cf \\xb8 .\\u3000\\u3000\\u3000\\u3000\\xb0 \\u263e \\xb0 \\u3000\\xb8.  \\u25cf  \\xb8 .\\u3000\\u3000\\u2605\\u3000\\xb0 :.\\u3000 . \\u2022  \\xb0  \\u3000 .\\u3000 *\\u3000:.\\u3000.\\u3000\\xb8 . \\u25cf \\xb8 \\u3000\\u3000\\u3000\\u2605\\u3000\\u3000\\u2605\\u263e \\xb0\\u2605  .  \\u3000\\u3000 \\u3000\\u3000.\\u3000 \\u2606 \\u3000. \\u25cf \\xb8 .\\u3000\\u3000\\u3000 \\u2605\\u3000\\xb0 .\\u3000  \\u2022\\u2605 \\u3000\\u3000\\u2605 \\xb0 \\u263e \\u2606 \\xb8. \\xb8\\u263e \\u2606 \\xb8. \\xb8 \\u3000 \\u2605\\u3000  \\u2022  \\u25cb \\xb0 \\u2605\\u3000 .\\u3000 *\\u3000.\\u263e \\u2606 \\xb8. \\xb8<\/font>'",
                "gender": "male",
                "name": "Lex Luther",
                "race_id": 1,
                "security_status": 0
            }
        },
        "get_characters_character_id_corporationhistory": {
            "1001": [
                {
                    "corporation_id": 2001,
                    "is_deleted": true,
                    "record_id": 500,
                    "start_date": "2016-06-26T20:00:00Z"
                },
                {
                    "corporation_id": 2002,
                    "record_id": 501,
                    "start_date": "2016-07-26T20:00:00Z"
                }
            ],
            "1002": []
        },
        "get_characters_character_id_standings": {
            "1001": [
                {
                    "from_id": 1901,
                    "from_type": "agent",
                    "standing": 0.1
                },
                {
                    "from_id": 2901,
                    "from_type": "npc_corp",
                    "standing": 0
                },
                {
                    "from_id": 500001,
                    "from_type": "faction",
                    "standing": -1
                }
            ],
            "1002": []
        },
        "get_characters_character_id_roles": {
            "1001": {
                "roles": [
                    "Director",
                    "Personnel_Manager",
                    "Accountant",
                    "Security_Officer",
                    "Factory_Manager",
                    "Station_Manager",
                    "Auditor",
                    "Hangar_Take_1",
                    "Hangar_Take_2",
                    "Hangar_Take_3",
                    "Hangar_Take_4",
                    "Hangar_Take_5",
                    "Hangar_Take_6",
                    "Hangar_Take_7",
                    "Hangar_Query_1",
                    "Hangar_Query_2",
                    "Hangar_Query_3",
                    "Hangar_Query_4",
                    "Hangar_Query_5",
                    "Hangar_Query_6",
                    "Hangar_Query_7",
                    "Account_Take_1",
                    "Account_Take_2",
                    "Account_Take_3",
                    "Account_Take_4",
                    "Account_Take_5",
                    "Account_Take_6",
                    "Account_Take_7",
                    "Diplomat",
                    "Config_Equipment",
                    "Container_Take_1",
                    "Container_Take_2",
                    "Container_Take_3",
                    "Container_Take_4",
                    "Container_Take_5",
                    "Container_Take_6",
                    "Container_Take_7",
                    "Rent_Office",
                    "Rent_Factory_Facility",
                    "Rent_Research_Facility",
                    "Junior_Accountant",
                    "Config_Starbase_Equipment",
                    "Trader",
                    "Communications_Officer",
                    "Contract_Manager",
                    "Starbase_Defense_Operator",
                    "Starbase_Fuel_Technician",
                    "Fitting_Manager"
                ],
                "roles_at_base": [
                    "Director",
                    "Personnel_Manager",
                    "Accountant",
                    "Security_Officer",
                    "Factory_Manager",
                    "Station_Manager",
                    "Auditor",
                    "Hangar_Take_1",
                    "Hangar_Take_2",
                    "Hangar_Take_3",
                    "Hangar_Take_4",
                    "Hangar_Take_5",
                    "Hangar_Take_6",
                    "Hangar_Take_7",
                    "Hangar_Query_1",
                    "Hangar_Query_2",
                    "Hangar_Query_3",
                    "Hangar_Query_4",
                    "Hangar_Query_5",
                    "Hangar_Query_6",
                    "Hangar_Query_7",
                    "Account_Take_1",
                    "Account_Take_2",
                    "Account_Take_3",
                    "Account_Take_4",
                    "Account_Take_5",
                    "Account_Take_6",
                    "Account_Take_7",
                    "Diplomat",
                    "Config_Equipment",
                    "Container_Take_1",
                    "Container_Take_2",
                    "Container_Take_3",
                    "Container_Take_4",
                    "Container_Take_5",
                    "Container_Take_6",
                    "Container_Take_7",
                    "Rent_Office",
                    "Rent_Factory_Facility",
                    "Rent_Research_Facility",
                    "Junior_Accountant",
                    "Config_Starbase_Equipment",
                    "Trader",
                    "Communications_Officer",
                    "Contract_Manager",
                    "Starbase_Defense_Operator",
                    "Starbase_Fuel_Technician",
                    "Fitting_Manager"
                ],
                "roles_at_hq": [
                    "Director",
                    "Personnel_Manager",
                    "Accountant",
                    "Security_Officer",
                    "Factory_Manager",
                    "Station_Manager",
                    "Auditor",
                    "Hangar_Take_1",
                    "Hangar_Take_2",
                    "Hangar_Take_3",
                    "Hangar_Take_4",
                    "Hangar_Take_5",
                    "Hangar_Take_6",
                    "Hangar_Take_7",
                    "Hangar_Query_1",
                    "Hangar_Query_2",
                    "Hangar_Query_3",
                    "Hangar_Query_4",
                    "Hangar_Query_5",
                    "Hangar_Query_6",
                    "Hangar_Query_7",
                    "Account_Take_1",
                    "Account_Take_2",
                    "Account_Take_3",
                    "Account_Take_4",
                    "Account_Take_5",
                    "Account_Take_6",
                    "Account_Take_7",
                    "Diplomat",
                    "Config_Equipment",
                    "Container_Take_1",
                    "Container_Take_2",
                    "Container_Take_3",
                    "Container_Take_4",
                    "Container_Take_5",
                    "Container_Take_6",
                    "Container_Take_7",
                    "Rent_Office",
                    "Rent_Factory_Facility",
                    "Rent_Research_Facility",
                    "Junior_Accountant",
                    "Config_Starbase_Equipment",
                    "Trader",
                    "Communications_Officer",
                    "Contract_Manager",
                    "Starbase_Defense_Operator",
                    "Starbase_Fuel_Technician",
                    "Fitting_Manager"
                ],
                "roles_at_other": [
                    "Director",
                    "Personnel_Manager",
                    "Accountant",
                    "Security_Officer",
                    "Factory_Manager",
                    "Station_Manager",
                    "Auditor",
                    "Hangar_Take_1",
                    "Hangar_Take_2",
                    "Hangar_Take_3",
                    "Hangar_Take_4",
                    "Hangar_Take_5",
                    "Hangar_Take_6",
                    "Hangar_Take_7",
                    "Hangar_Query_1",
                    "Hangar_Query_2",
                    "Hangar_Query_3",
                    "Hangar_Query_4",
                    "Hangar_Query_5",
                    "Hangar_Query_6",
                    "Hangar_Query_7",
                    "Account_Take_1",
                    "Account_Take_2",
                    "Account_Take_3",
                    "Account_Take_4",
                    "Account_Take_5",
                    "Account_Take_6",
                    "Account_Take_7",
                    "Diplomat",
                    "Config_Equipment",
                    "Container_Take_1",
                    "Container_Take_2",
                    "Container_Take_3",
                    "Container_Take_4",
                    "Container_Take_5",
                    "Container_Take_6",
                    "Container_Take_7",
                    "Rent_Office",
                    "Rent_Factory_Facility",
                    "Rent_Research_Facility",
                    "Junior_Accountant",
                    "Config_Starbase_Equipment",
                    "Trader",
                    "Communications_Officer",
                    "Contract_Manager",
                    "Starbase_Defense_Operator",
                    "Starbase_Fuel_Technician",
                    "Fitting_Manager"
                ]
            }
        },
        "get_characters_character_id_titles": {
            "1001": [
                {
                    "name": "Awesome Title",
                    "title_id": 1
                }
            ]
        }
    },
    "Contacts": {
        "get_characters_character_id_contacts": {
            "1001": [
                {
                    "contact_id": 1101,
                    "contact_type": "character",
                    "is_blocked": false,
                    "is_watched": true,
                    "standing": -10,
                    "label_ids": [
                        2
                    ]
                },
                {
                    "contact_id": 2002,
                    "contact_type": "corporation",
                    "is_blocked": false,
                    "is_watched": false,
                    "standing": 5,
                    "label_ids": null
                }
            ]
        },
        "get_characters_character_id_contacts_labels": {
            "1001": [
                {
                    "label_id": 1,
                    "label_name": "friend"
                },
                {
                    "label_id": 2,
                    "label_name": "pirate"
                }
            ]
        }
    },
    "Contracts": {
        "get_characters_character_id_contracts": {
            "1001": [
                {
                    "acceptor_id": 1101,
                    "assignee_id": 2101,
                    "availability": "personal",
                    "buyout": null,
                    "collateral": 550000000.0,
                    "contract_id": 100000001,
                    "date_accepted": "2019-10-06T13:15:21Z",
                    "date_completed": "2019-10-07T13:15:21Z",
                    "date_expired": "2019-10-09T13:15:21Z",
                    "date_issued": "2019-10-02T13:15:21Z",
                    "days_to_complete": 3,
                    "end_location_id": 1000000000001,
                    "for_corporation": false,
                    "issuer_corporation_id": 2001,
                    "issuer_id": 1001,
                    "price": 0.0,
                    "reward": 500000000.0,
                    "start_location_id": 60003760,
                    "status": "in_progress",
                    "title": "Test 1",
                    "type": "courier",
                    "volume": 486000.0
                },
                {
                    "acceptor_id": 1101,
                    "assignee_id": 2101,
                    "availability": "personal",
                    "buyout": null,
                    "collateral": 0.0,
                    "contract_id": 100000002,
                    "date_accepted": "2019-09-13T17:23:44Z",
                    "date_completed": "2019-09-13T17:23:44Z",
                    "date_expired": "2019-10-15T23:08:38Z",
                    "date_issued": "2019-09-12T23:08:38Z",
                    "days_to_complete": 0,
                    "end_location_id": 1000000000001,
                    "for_corporation": false,
                    "issuer_corporation_id": 2001,
                    "issuer_id": 1001,
                    "price": 270000000.0,
                    "reward": 0.0,
                    "start_location_id": 1000000000001,
                    "status": "finished",
                    "title": "Test 2",
                    "type": "item_exchange",
                    "volume": 486000.0
                },
                {
                    "acceptor_id": null,
                    "assignee_id": null,
                    "availability": "personal",
                    "buyout": 200000000.0,
                    "collateral": null,
                    "contract_id": 100000003,
                    "date_accepted": "2019-09-13T17:23:44Z",
                    "date_completed": "2019-09-13T17:23:44Z",
                    "date_expired": "2019-10-20T23:08:38Z",
                    "date_issued": "2019-09-12T23:08:38Z",
                    "days_to_complete": 0,
                    "end_location_id": 1000000000001,
                    "for_corporation": false,
                    "issuer_corporation_id": 2001,
                    "issuer_id": 1001,
                    "price": 20000000.0,
                    "reward": 0,
                    "start_location_id": 1000000000001,
                    "status": "outstanding",
                    "title": "Test 3",
                    "type": "auction",
                    "volume": 400.0
                }
            ]
        },
        "get_characters_character_id_contracts_contract_id_bids": {
            "1001": {
                "100000003": [
                    {
                        "amount": 1000000.23,
                        "bid_id": 1,
                        "bidder_id": 1101,
                        "date_bid": "2017-01-01T10:10:10Z"
                    }
                ]
            }
        },
        "get_characters_character_id_contracts_contract_id_items": {
            "1001": {
                "100000002": [
                    {
                        "is_included": true,
                        "is_singleton": false,
                        "quantity": 3,
                        "record_id": 1,
                        "type_id": 19540
                    },
                    {
                        "is_included": true,
                        "is_singleton": false,
                        "quantity": 5,
                        "record_id": 2,
                        "raw_quantity": -1,
                        "type_id": 19551
                    }
                ],
                "100000003": [
                    {
                        "is_included": true,
                        "is_singleton": false,
                        "quantity": 3,
                        "record_id": 1,
                        "type_id": 19540
                    }
                ]
            }
        }
    },
    "Faction_Warfare": {
        "get_characters_character_id_fw_stats": {
            "1001": {
                "current_rank": 3,
                "enlisted_on": "2017-01-02T03:04:05Z",
                "faction_id": 500001,
                "highest_rank": 4,
                "kills": {
                    "last_week": 893,
                    "total": 684350,
                    "yesterday": 136
                },
                "victory_points": {
                    "last_week": 102640,
                    "total": 52658260,
                    "yesterday": 15980
                }
            }
        }
    },
    "Clones": {
        "get_characters_character_id_clones": {
            "1001": {
                "home_location": {
                    "location_id": 1000000000001,
                    "location_type": "structure"
                },
                "jump_clones": [
                    {
                        "implants": [
                            19540,
                            19551,
                            19553
                        ],
                        "jump_clone_id": 12345,
                        "location_id": 60003760,
                        "location_type": "station",
                        "name": null
                    }
                ],
                "last_clone_jump_date": "2017-01-01T10:10:10Z",
                "last_station_change_date": "2017-01-02T11:10:10Z"
            },
            "1002": {
                "jump_clones": [
                    {
                        "implants": null,
                        "jump_clone_id": 12345,
                        "location_id": 60003760,
                        "location_type": "station",
                        "name": null
                    }
                ]
            }
        },
        "get_characters_character_id_implants": {
            "1001": [
                19540,
                19551,
                19553
            ],
            "1002": []
        }
    },
    "Location": {
        "get_characters_character_id_location": {
            "1001": {
                "solar_system_id": 30000142,
                "station_id": 60003760
            },
            "1002": {
                "solar_system_id": 30002537,
                "structure_id": 1000000000001
            },
            "1003": {
                "solar_system_id": 30002537
            }
        },
        "get_characters_character_id_online": {
            "1001": {
                "last_login": "2017-01-02T03:04:05Z",
                "last_logout": "2017-01-02T04:05:06Z",
                "logins": 9001,
                "online": true
            }
        },
        "get_characters_character_id_ship": {
            "1001": {
                "ship_item_id": 1000000016991,
                "ship_name": "Shooter Boy",
                "ship_type_id": 603
            }
        }
    },
    "Loyalty": {
        "get_characters_character_id_loyalty_points": {
            "1001": [
                {
                    "corporation_id": 2002,
                    "loyalty_points": 100
                }
            ]
        }
    },
    "Industry": {
        "get_characters_character_id_mining": {
            "1001": []
        }
    },
    "Mail": {
        "get_characters_character_id_mail_lists": {
            "1001": [
                {
                    "mailing_list_id": 9001,
                    "name": "Dummy 1"
                },
                {
                    "mailing_list_id": 9002,
                    "name": "Dummy 2"
                }
            ]
        },
        "get_characters_character_id_mail_labels": {
            "1001": {
                "labels": [
                    {
                        "color": "#660066",
                        "label_id": 3,
                        "name": "PINK",
                        "unread_count": 4
                    },
                    {
                        "color": "#ffffff",
                        "label_id": 17,
                        "name": "WHITE",
                        "unread_count": 1
                    }
                ],
                "total_unread_count": 5
            }
        },
        "get_characters_character_id_mail": {
            "1001": [
                {
                    "from": 1002,
                    "is_read": true,
                    "labels": [
                        3
                    ],
                    "mail_id": 1,
                    "recipients": [
                        {
                            "recipient_id": 1001,
                            "recipient_type": "character"
                        },
                        {
                            "recipient_id": 9001,
                            "recipient_type": "mailing_list"
                        }
                    ],
                    "subject": "Mail 1",
                    "timestamp": "2015-09-05T16:07:00Z"
                },
                {
                    "from": 9001,
                    "labels": [
                        3
                    ],
                    "mail_id": 2,
                    "recipients": [
                        {
                            "recipient_id": 1001,
                            "recipient_type": "character"
                        }
                    ],
                    "subject": "Mail 2",
                    "timestamp": "2015-09-10T18:07:00Z"
                },
                {
                    "from": 1002,
                    "labels": [
                        3
                    ],
                    "mail_id": 3,
                    "recipients": [
                        {
                            "recipient_id": 9003,
                            "recipient_type": "mailing_list"
                        }
                    ],
                    "subject": "Unknown mailing list recipient",
                    "timestamp": "2015-09-20T12:07:00Z"
                }
            ],
            "1002": [
                {
                    "from": 9099,
                    "labels": null,
                    "mail_id": 21,
                    "recipients": [
                        {
                            "recipient_id": 1001,
                            "recipient_type": "character"
                        }
                    ],
                    "subject": "From unknown mailing list",
                    "timestamp": "2015-09-30T18:07:00Z"
                }
            ]
        },
        "get_characters_character_id_mail_mail_id": {
            "1": {
                "body": "blah blah blah 😓",
                "from": 1002,
                "labels": [
                    3
                ],
                "read": true,
                "subject": "Mail 1",
                "timestamp": "2015-09-30T16:07:00Z"
            },
            "2": {
                "body": "<font size=\"13\" color=\"#b3ffffff\">Character: </font><font size=\"13\" color=\"#ffd98d00\"><loc><a href=\"showinfo:1376//1001\">Bruce Wayne</a></loc><br><br></font><font size=\"13\" color=\"#b3ffffff\">Corporation: </font><font size=\"13\" color=\"#ffd98d00\"><a href=\"showinfo:2//2001\">Wayne Technologies</a><br><br></font><font size=\"13\" color=\"#b3ffffff\">Alliance: </font><font size=\"13\" color=\"#ffd98d00\"><loc><a href=\"showinfo:16159//3001\">Wayne Enterprises</a></loc><br><br></font><font size=\"13\" color=\"#b3ffffff\">Solar System: </font><font size=\"13\" color=\"#ffd98d00\"><a href=\"showinfo:5//30004984\">Abune</a><br><br></font><font size=\"13\" color=\"#b3ffffff\">Structure:  </font><font size=\"13\" color=\"#ffd98d00\"><a href=\"showinfo:35835//1000000000001\">Amamake - Test Structure Alpha</a></font><font size=\"13\" color=\"#b3ffffff\"> <br><br>Station: </font><font size=\"13\" color=\"#ffd98d00\"><a href=\"showinfo:52678//60003760\">Jita IV - Moon 4 - Caldari Navy Assembly Plant</a></font><font size=\"13\" color=\"#b3ffffff\"> <br><br>Type: </font><font size=\"13\" color=\"#ffd98d00\"><loc><a href=\"showinfo:603\">Merlin</loc>n</a><br><br></font><font size=\"13\" color=\"#b3ffffff\">Killmail:  </font><font size=\"13\" color=\"#ffd98d00\"><a href=\"killReport:84900666:9e6fe9e5392ff0cfc6ab956677dbe1deb69c4b04\">Kill: Yuna Kobayashi (Badger)</a></font><font size=\"13\" color=\"#b3ffffff\"> <br><br>URL: </font><font size=\"13\" color=\"#ffffe400\"><loc><a href=\"http://www.google.com\">https://www.google.co</loc>m</a><br><br></font><font size=\"13\" color=\"#b3ffffff\">Very nice!</font>",
                "from": 1101,
                "labels": null,
                "subject": "Mail 2",
                "timestamp": "2015-09-30T18:07:00Z"
            },
            "3": {
                "body": "Lorem ipsum dolor sit amet, consectetur adipiscing elit, sed do eiusmod tempor incididunt ut labore et dolore magna aliqua. Ut enim ad minim veniam, quis nostrud exercitation ullamco laboris nisi ut aliquip ex ea commodo consequat. Duis aute irure dolor in reprehenderit in voluptate velit esse cillum dolore eu fugiat nulla pariatur. Excepteur sint occaecat cupidatat non proident, sunt in culpa qui officia deserunt mollit anim id est laborum.",
                "from": 1002,
                "labels": [
                    3
                ],
                "read": true,
                "subject": "Unknown mailing list",
                "timestamp": "2015-09-30T16:07:00Z"
            },
            "4": {
                "body": "Lorem ipsum dolor sit amet, consectetur adipiscing elit, sed do eiusmod tempor incididunt ut labore et dolore magna aliqua. Ut enim ad minim veniam, quis nostrud exercitation ullamco laboris nisi ut aliquip ex ea commodo consequat.<br>Duis aute irure dolor in reprehenderit in voluptate velit esse cillum dolore eu fugiat nulla pariatur. Excepteur sint occaecat cupidatat non proident, sunt in culpa qui officia deserunt mollit anim id est laborum.",
                "from": 1002,
                "labels": null,
                "read": true,
                "subject": "Mail with no formatting",
                "timestamp": "2015-09-30T18:07:00Z"
            },
            "21": {
                "body": "Lorem ipsum dolor sit amet, consectetur adipiscing elit, sed do eiusmod tempor incididunt ut labore et dolore magna aliqua. Ut enim ad minim veniam, quis nostrud exercitation ullamco laboris nisi ut aliquip ex ea commodo consequat. Duis aute irure dolor in reprehenderit in voluptate velit esse cillum dolore eu fugiat nulla pariatur. Excepteur sint occaecat cupidatat non proident, sunt in culpa qui officia deserunt mollit anim id est laborum.",
                "from": 9099,
                "labels": null,
                "read": true,
                "subject": "From unknown mailing list",
                "timestamp": "2015-09-30T18:07:00Z"
            }
        }
    },
    "Market": {
        "get_markets_prices": [
            {
                "adjusted_price": 306988.09,
                "average_price": 306292.67,
                "type_id": 603
            },
            {
                "adjusted_price": 123.45,
                "average_price": 678.90,
                "type_id": 420
            }
        ]
    },
    "Planetary_Interaction": {
        "get_characters_character_id_planets": {
            "1001": [
                {
                    "last_update": "2016-11-28T16:42:51Z",
                    "num_pins": 1,
                    "owner_id": 1001,
                    "planet_id": 40161463,
                    "planet_type": "barren",
                    "solar_system_id": 30002537,
                    "upgrade_level": 0
                },
                {
                    "last_update": "2016-11-28T16:41:54Z",
                    "num_pins": 2,
                    "owner_id": 1001,
                    "planet_id": 40161464,
                    "planet_type": "temperate",
                    "solar_system_id": 30002537,
                    "upgrade_level": 3
                }
            ]
        }
    },
    "Status": {
        "get_status": {
            "players": 12345,
            "server_version": "1132976",
            "start_time": "2017-01-02T12:34:56Z",
            "vip": null
        }
    },
    "Skills": {
        "get_characters_character_id_skills": {
            "1001": {
                "skills": [
                    {
                        "active_skill_level": 3,
                        "skill_id": 24311,
                        "skillpoints_in_skill": 20000,
                        "trained_skill_level": 4
                    },
                    {
                        "active_skill_level": 1,
                        "skill_id": 24312,
                        "skillpoints_in_skill": 10000,
                        "trained_skill_level": 1
                    }
                ],
                "total_sp": 30000,
                "unallocated_sp": 1000
            }
        },
        "get_characters_character_id_skillqueue": {
            "1001": [
                {
                    "finish_date": "2016-06-29T10:47:00Z",
                    "finished_level": 3,
                    "queue_position": 0,
                    "skill_id": 24311,
                    "start_date": "2016-06-29T10:46:00Z"
                },
                {
                    "finish_date": "2016-07-15T10:47:00Z",
                    "finished_level": 4,
                    "level_end_sp": 1000,
                    "level_start_sp": 100,
                    "queue_position": 1,
                    "skill_id": 24312,
                    "start_date": "2016-06-29T10:47:00Z",
                    "training_start_sp": 50
                },
                {
                    "finish_date": "2016-08-15T10:47:00Z",
                    "finished_level": 5,
                    "level_end_sp": 10000,
                    "level_start_sp": 1000,
                    "queue_position": 2,
                    "skill_id": 24312,
                    "start_date": "2016-07-15T10:47:00Z",
                    "training_start_sp": 50
                }
            ]
        },
        "get_characters_character_id_attributes": {
            "1001": {
                "accrued_remap_cooldown_date": "2016-10-24T09:00:00Z",
                "last_remap_date": "2016-10-24T09:00:00Z",
                "bonus_remaps": 3,
                "charisma": 16,
                "intelligence": 17,
                "memory": 18,
                "perception": 19,
                "willpower": 20
            }
        }
    },
    "Universe": {
        "get_universe_stations_station_id": {
            "60003760": {
                "name": "Jita IV - Moon 4 - Caldari Navy Assembly Plant",
                "system_id": 30000142,
                "type_id": 52678,
                "owner": 2002
            }
        },
        "get_universe_structures_structure_id": {
            "1000000000001": {
                "owner_id": 2001,
                "name": "Amamake - Test Structure Alpha",
                "position": {
                    "x": 55028384780.0,
                    "y": 7310316270.0,
                    "z": -163686684205.0
                },
                "solar_system_id": 30002537,
                "type_id": 35832
            },
            "1000000000002": {
                "owner_id": 2001,
                "name": "Amamake - Test Structure Bravo",
                "position": {
                    "x": -2518743930339.066,
                    "y": -130157937025.56424,
                    "z": -442026427345.6355
                },
                "solar_system_id": 30002537,
                "type_id": 35835
            }
        }
    },
    "Wallet": {
        "get_characters_character_id_wallet": {
            "1001": 123456789
        },
        "get_characters_character_id_wallet_journal": {
            "1001": [
                {
                    "amount": -100000,
                    "balance": 500000.4316,
                    "context_id": 4,
                    "context_id_type": "contract_id",
                    "date": "2018-02-23T14:31:32Z",
                    "description": "Contract Deposit",
                    "first_party_id": 2001,
                    "id": 89,
                    "reason": "just for fun",
                    "ref_type": "contract_deposit",
                    "second_party_id": 2002
                },
                {
                    "amount": -500000,
                    "balance": 600000.4316,
                    "context_id": null,
                    "context_id_type": null,
                    "date": "2018-03-10T16:31:32Z",
                    "description": "Dank mission reward",
                    "first_party_id": 2101,
                    "id": 91,
                    "ref_type": "agent_mission_time_bonus_reward_corporation_tax",
                    "second_party_id": 2001
                }
            ]
        },
        "get_characters_character_id_wallet_transactions": {
            "1001": [
                {
                    "client_id": 1003,
                    "date": "2016-10-24T09:00:00Z",
                    "is_buy": true,
                    "is_personal": true,
                    "journal_ref_id": 67890,
                    "location_id": 60003760,
                    "quantity": 3,
                    "transaction_id": 42,
                    "type_id": 603,
                    "unit_price": 450000.99
                }
            ]
        }
    }
}
